%YAML 1.1
%TAG !u! tag:unity3d.com,2011:
--- !u!1045 &1
EditorBuildSettings:
  m_ObjectHideFlags: 0
  serializedVersion: 2
  m_Scenes:
  - enabled: 1
    path: Assets/Scenes/EgillStairs_v1.unity
    guid: 4bd2229f7c6dd4975b1b0af5af55c3fd
  m_configObjects: {}
